{
  "functions": {
    "source": "packages/main"
  },
  "firestore": {
    "rules": "firebase/firestore.rules",
    "indexes": "firebase/firestore.indexes.json"
  },
  "hosting": {
    "public": "public",
    "ignore": [
      "firebase.json",
      "**/.*",
      "**/node_modules/**"
    ],
    "rewrites": [
      {
        "source": "**",
        "destination": "/index.html"
      }
    ]
  }
}
